{
  "classname": null,
  "name": null,
  "animation": {
    "classname": null,
    "name": "AnimationManager",
    "actionlist": []
  },
  "designHeight": 1024,
  "designWidth": 768,
  "textures": [],
  "version": "1.1.0.0",
  "widgetTree": {
    "classname": "Panel",
    "name": null,
    "children": [
      {
        "classname": "Panel",
        "name": null,
        "children": [
          {
            "classname": "ImageView",
            "name": null,
            "children": [],
            "options": {
              "__type": "ComGUIImageViewSurrogate:#EditorCommon.JsonModel.Component.GUI",
              "classname": "ImageView",
              "name": "leftMask",
              "ZOrder": 0,
              "actiontag": 449,
              "anchorPointX": 0,
              "anchorPointY": 0,
              "classType": null,
              "colorB": 255,
              "colorG": 255,
              "colorR": 255,
              "flipX": false,
              "flipY": false,
              "height": 768,
              "ignoreSize": false,
              "layoutParameter": null,
              "opacity": 255,
              "positionPercentX": 0.201171875,
              "positionPercentY": 0,
              "positionType": 0,
              "rotation": 0,
              "scaleX": 0.4,
              "scaleY": 1,
              "sizePercentX": 0.03,
              "sizePercentY": 1,
              "sizeType": 0,
              "tag": 409,
              "touchAble": false,
              "useMergedTexture": false,
              "visible": true,
              "width": 30.72,
              "x": 206,
              "y": 0,
              "capInsetsHeight": 0,
              "capInsetsWidth": 0,
              "capInsetsX": 0,
              "capInsetsY": 0,
              "fileName": null,
              "fileNameData": {
                "path": "world/w1/mask.png",
                "plistFile": null,
                "resourceType": 0
              },
              "scale9Enable": false,
              "scale9Height": 768,
              "scale9Width": 30.72
            }
          },
          {
            "classname": "ImageView",
            "name": null,
            "children": [],
            "options": {
              "__type": "ComGUIImageViewSurrogate:#EditorCommon.JsonModel.Component.GUI",
              "classname": "ImageView",
              "name": "rightMask",
              "ZOrder": 0,
              "actiontag": 450,
              "anchorPointX": 1,
              "anchorPointY": 0,
              "classType": null,
              "colorB": 255,
              "colorG": 255,
              "colorR": 255,
              "flipX": true,
              "flipY": false,
              "height": 768,
              "ignoreSize": false,
              "layoutParameter": null,
              "opacity": 255,
              "positionPercentX": 0.7988281,
              "positionPercentY": 0,
              "positionType": 0,
              "rotation": 0,
              "scaleX": 0.4,
              "scaleY": 1,
              "sizePercentX": 0.03,
              "sizePercentY": 1,
              "sizeType": 0,
              "tag": 409,
              "touchAble": false,
              "useMergedTexture": false,
              "visible": true,
              "width": 30.72,
              "x": 818,
              "y": 0,
              "capInsetsHeight": 0,
              "capInsetsWidth": 0,
              "capInsetsX": 0,
              "capInsetsY": 0,
              "fileName": null,
              "fileNameData": {
                "path": "world/w1/mask.png",
                "plistFile": null,
                "resourceType": 0
              },
              "scale9Enable": false,
              "scale9Height": 768,
              "scale9Width": 30.72
            }
          },
          {
            "classname": "Panel",
            "name": null,
            "children": [
              {
                "classname": "LabelBMFont",
                "name": null,
                "children": [],
                "options": {
                  "__type": "ComGUILabelBMFontSurrogate:#EditorCommon.JsonModel.Component.GUI",
                  "classname": "LabelBMFont",
                  "name": "lblMultiplier",
                  "ZOrder": 1,
                  "actiontag": 5429,
                  "anchorPointX": 0.5,
                  "anchorPointY": 0.5,
                  "classType": null,
                  "colorB": 255,
                  "colorG": 255,
                  "colorR": 255,
                  "flipX": false,
                  "flipY": false,
                  "height": 58,
                  "ignoreSize": true,
                  "layoutParameter": null,
                  "opacity": 255,
                  "positionPercentX": 0.68,
                  "positionPercentY": 1.93,
                  "positionType": 0,
                  "rotation": 0,
                  "scaleX": 0.5999999,
                  "scaleY": 0.5999999,
                  "sizePercentX": 0.53,
                  "sizePercentY": 0.58,
                  "sizeType": 0,
                  "tag": 29,
                  "touchAble": false,
                  "useMergedTexture": false,
                  "visible": true,
                  "width": 80,
                  "x": 102,
                  "y": 193,
                  "fileNameData": {
                    "path": "fonts/Hobostd84.fnt",
                    "plistFile": null,
                    "resourceType": 0
                  },
                  "text": "3.51"
                }
              },
              {
                "classname": "ImageView",
                "name": null,
                "children": [],
                "options": {
                  "__type": "ComGUIImageViewSurrogate:#EditorCommon.JsonModel.Component.GUI",
                  "classname": "ImageView",
                  "name": "multiplier",
                  "ZOrder": 1,
                  "actiontag": 5378,
                  "anchorPointX": 0.5,
                  "anchorPointY": 0.5,
                  "classType": null,
                  "colorB": 255,
                  "colorG": 255,
                  "colorR": 255,
                  "flipX": false,
                  "flipY": false,
                  "height": 19,
                  "ignoreSize": true,
                  "layoutParameter": null,
                  "opacity": 255,
                  "positionPercentX": 0.6666667,
                  "positionPercentY": 2.42999983,
                  "positionType": 0,
                  "rotation": 0,
                  "scaleX": 1.2,
                  "scaleY": 1.2,
                  "sizePercentX": 0.51,
                  "sizePercentY": 0.19,
                  "sizeType": 0,
                  "tag": 34,
                  "touchAble": false,
                  "useMergedTexture": false,
                  "visible": true,
                  "width": 77,
                  "x": 100,
                  "y": 243,
                  "capInsetsHeight": 0,
                  "capInsetsWidth": 0,
                  "capInsetsX": 0,
                  "capInsetsY": 0,
                  "fileName": null,
                  "fileNameData": {
                    "path": "common/multiplier.png",
                    "plistFile": null,
                    "resourceType": 0
                  },
                  "scale9Enable": false,
                  "scale9Height": 19,
                  "scale9Width": 77
                }
              },
              {
                "classname": "ImageView",
                "name": null,
                "children": [],
                "options": {
                  "__type": "ComGUIImageViewSurrogate:#EditorCommon.JsonModel.Component.GUI",
                  "classname": "ImageView",
                  "name": "ImageView_Clone",
                  "ZOrder": 0,
                  "actiontag": 445,
                  "anchorPointX": 0.5,
                  "anchorPointY": 0.5,
                  "classType": null,
                  "colorB": 255,
                  "colorG": 255,
                  "colorR": 255,
                  "flipX": false,
                  "flipY": false,
                  "height": 64,
                  "ignoreSize": true,
                  "layoutParameter": null,
                  "opacity": 255,
                  "positionPercentX": 0.6866666,
                  "positionPercentY": 1.93999994,
                  "positionType": 0,
                  "rotation": 0,
                  "scaleX": 0.65,
                  "scaleY": 0.75,
                  "sizePercentX": 1.3,
                  "sizePercentY": 0.64,
                  "sizeType": 0,
                  "tag": 400,
                  "touchAble": false,
                  "useMergedTexture": false,
                  "visible": true,
                  "width": 195,
                  "x": 103,
                  "y": 194,
                  "capInsetsHeight": 0,
                  "capInsetsWidth": 0,
                  "capInsetsX": 0,
                  "capInsetsY": 0,
                  "fileName": null,
                  "fileNameData": {
                    "path": "common/info_cell.png",
                    "plistFile": null,
                    "resourceType": 0
                  },
                  "scale9Enable": false,
                  "scale9Height": 64,
                  "scale9Width": 195
                }
              },
              {
                "classname": "ImageView",
                "name": null,
                "children": [],
                "options": {
                  "__type": "ComGUIImageViewSurrogate:#EditorCommon.JsonModel.Component.GUI",
                  "classname": "ImageView",
                  "name": "gamestar_1",
                  "ZOrder": 1,
                  "actiontag": 5375,
                  "anchorPointX": 0.5,
                  "anchorPointY": 0.5,
                  "classType": null,
                  "colorB": 255,
                  "colorG": 255,
                  "colorR": 255,
                  "flipX": false,
                  "flipY": false,
                  "height": 130,
                  "ignoreSize": true,
                  "layoutParameter": null,
                  "opacity": 255,
                  "positionPercentX": 0.706666648,
                  "positionPercentY": 3.15999985,
                  "positionType": 0,
                  "rotation": 0,
                  "scaleX": 0.55,
                  "scaleY": 0.549999952,
                  "sizePercentX": 2.33,
                  "sizePercentY": 1.3,
                  "sizeType": 0,
                  "tag": 31,
                  "touchAble": false,
                  "useMergedTexture": false,
                  "visible": true,
                  "width": 350,
                  "x": 106,
                  "y": 316,
                  "capInsetsHeight": 0,
                  "capInsetsWidth": 0,
                  "capInsetsX": 0,
                  "capInsetsY": 0,
                  "fileName": null,
                  "fileNameData": {
                    "path": "common/gamestar_1.png",
                    "plistFile": null,
                    "resourceType": 0
                  },
                  "scale9Enable": false,
                  "scale9Height": 130,
                  "scale9Width": 350
                }
              },
              {
                "classname": "ImageView",
                "name": null,
                "children": [],
                "options": {
                  "__type": "ComGUIImageViewSurrogate:#EditorCommon.JsonModel.Component.GUI",
                  "classname": "ImageView",
                  "name": "gamestar_2",
                  "ZOrder": 1,
                  "actiontag": 5376,
                  "anchorPointX": 0.5,
                  "anchorPointY": 0.5,
                  "classType": null,
                  "colorB": 255,
                  "colorG": 255,
                  "colorR": 255,
                  "flipX": false,
                  "flipY": false,
                  "height": 130,
                  "ignoreSize": true,
                  "layoutParameter": null,
                  "opacity": 255,
                  "positionPercentX": 0.706666648,
                  "positionPercentY": 3.15999985,
                  "positionType": 0,
                  "rotation": 0,
                  "scaleX": 0.55,
                  "scaleY": 0.549999952,
                  "sizePercentX": 2.33,
                  "sizePercentY": 1.3,
                  "sizeType": 0,
                  "tag": 31,
                  "touchAble": false,
                  "useMergedTexture": false,
                  "visible": true,
                  "width": 350,
                  "x": 106,
                  "y": 316,
                  "capInsetsHeight": 0,
                  "capInsetsWidth": 0,
                  "capInsetsX": 0,
                  "capInsetsY": 0,
                  "fileName": null,
                  "fileNameData": {
                    "path": "common/gamestar_2.png",
                    "plistFile": null,
                    "resourceType": 0
                  },
                  "scale9Enable": false,
                  "scale9Height": 130,
                  "scale9Width": 350
                }
              },
              {
                "classname": "ImageView",
                "name": null,
                "children": [],
                "options": {
                  "__type": "ComGUIImageViewSurrogate:#EditorCommon.JsonModel.Component.GUI",
                  "classname": "ImageView",
                  "name": "gamestar_3",
                  "ZOrder": 1,
                  "actiontag": 5377,
                  "anchorPointX": 0.5,
                  "anchorPointY": 0.5,
                  "classType": null,
                  "colorB": 255,
                  "colorG": 255,
                  "colorR": 255,
                  "flipX": false,
                  "flipY": false,
                  "height": 130,
                  "ignoreSize": true,
                  "layoutParameter": null,
                  "opacity": 255,
                  "positionPercentX": 0.706666648,
                  "positionPercentY": 3.15999985,
                  "positionType": 0,
                  "rotation": 0,
                  "scaleX": 0.55,
                  "scaleY": 0.549999952,
                  "sizePercentX": 2.33,
                  "sizePercentY": 1.3,
                  "sizeType": 0,
                  "tag": 31,
                  "touchAble": false,
                  "useMergedTexture": false,
                  "visible": true,
                  "width": 350,
                  "x": 106,
                  "y": 316,
                  "capInsetsHeight": 0,
                  "capInsetsWidth": 0,
                  "capInsetsX": 0,
                  "capInsetsY": 0,
                  "fileName": null,
                  "fileNameData": {
                    "path": "common/gamestar_3.png",
                    "plistFile": null,
                    "resourceType": 0
                  },
                  "scale9Enable": false,
                  "scale9Height": 130,
                  "scale9Width": 350
                }
              },
              {
                "classname": "LabelBMFont",
                "name": null,
                "children": [],
                "options": {
                  "__type": "ComGUILabelBMFontSurrogate:#EditorCommon.JsonModel.Component.GUI",
                  "classname": "LabelBMFont",
                  "name": "lblScore",
                  "ZOrder": 0,
                  "actiontag": 441,
                  "anchorPointX": 0.5,
                  "anchorPointY": 0.5,
                  "classType": null,
                  "colorB": 255,
                  "colorG": 255,
                  "colorR": 255,
                  "flipX": false,
                  "flipY": false,
                  "height": 58,
                  "ignoreSize": true,
                  "layoutParameter": null,
                  "opacity": 255,
                  "positionPercentX": 0.6666667,
                  "positionPercentY": 2.99,
                  "positionType": 0,
                  "rotation": 0,
                  "scaleX": 0.55,
                  "scaleY": 0.55,
                  "sizePercentX": 1.01,
                  "sizePercentY": 0.58,
                  "sizeType": 0,
                  "tag": 28,
                  "touchAble": false,
                  "useMergedTexture": false,
                  "visible": true,
                  "width": 151,
                  "x": 100,
                  "y": 299,
                  "fileNameData": {
                    "path": "fonts/Hobostd84.fnt",
                    "plistFile": null,
                    "resourceType": 0
                  },
                  "text": "125,000"
                }
              },
              {
                "classname": "Button",
                "name": null,
                "children": [],
                "options": {
                  "__type": "ComGUIButtonSurrogate:#EditorCommon.JsonModel.Component.GUI",
                  "classname": "Button",
                  "name": "btnPause",
                  "ZOrder": 0,
                  "actiontag": 448,
                  "anchorPointX": 0.5,
                  "anchorPointY": 0.5,
                  "classType": null,
                  "colorB": 255,
                  "colorG": 255,
                  "colorR": 255,
                  "flipX": false,
                  "flipY": false,
                  "height": 76,
                  "ignoreSize": true,
                  "layoutParameter": null,
                  "opacity": 255,
                  "positionPercentX": 6.146666,
                  "positionPercentY": 3.21,
                  "positionType": 0,
                  "rotation": 0,
                  "scaleX": 0.799999952,
                  "scaleY": 0.799999952,
                  "sizePercentX": 0.48999998,
                  "sizePercentY": 0.76,
                  "sizeType": 0,
                  "tag": 408,
                  "touchAble": true,
                  "useMergedTexture": false,
                  "visible": true,
                  "width": 74,
                  "x": 922,
                  "y": 321,
                  "capInsetsHeight": 0,
                  "capInsetsWidth": 0,
                  "capInsetsX": 0,
                  "capInsetsY": 0,
                  "disabled": null,
                  "disabledData": {
                    "path": null,
                    "plistFile": null,
                    "resourceType": 0
                  },
                  "normal": null,
                  "normalData": {
                    "path": "game/btn_pause_n.png",
                    "plistFile": null,
                    "resourceType": 0
                  },
                  "pressed": null,
                  "pressedData": {
                    "path": "game/btn_pause_p.png",
                    "plistFile": null,
                    "resourceType": 0
                  },
                  "scale9Enable": false,
                  "scale9Height": 76,
                  "scale9Width": 74
                }
              },
              {
                "classname": "Button",
                "name": null,
                "children": [
                  {
                    "classname": "ImageView",
                    "name": null,
                    "children": [],
                    "options": {
                      "__type": "ComGUIImageViewSurrogate:#EditorCommon.JsonModel.Component.GUI",
                      "classname": "ImageView",
                      "name": "imgView_Powerup_1",
                      "ZOrder": 0,
                      "actiontag": 7008,
                      "anchorPointX": 0.5,
                      "anchorPointY": 0.5,
                      "classType": null,
                      "colorB": 255,
                      "colorG": 255,
                      "colorR": 255,
                      "flipX": false,
                      "flipY": false,
                      "height": 152,
                      "ignoreSize": true,
                      "layoutParameter": null,
                      "opacity": 255,
                      "positionPercentX": 0,
                      "positionPercentY": 0,
                      "positionType": 0,
                      "rotation": 0,
                      "scaleX": 0.6,
                      "scaleY": 0.6,
                      "sizePercentX": 1.28,
                      "sizePercentY": 1.42,
                      "sizeType": 0,
                      "tag": 400,
                      "touchAble": false,
                      "useMergedTexture": false,
                      "visible": true,
                      "width": 123,
                      "x": 0,
                      "y": 0,
                      "capInsetsHeight": 0,
                      "capInsetsWidth": 0,
                      "capInsetsX": 0,
                      "capInsetsY": 0,
                      "fileName": null,
                      "fileNameData": {
                        "path": "boosts/boost_1.png",
                        "plistFile": null,
                        "resourceType": 0
                      },
                      "scale9Enable": false,
                      "scale9Height": 152,
                      "scale9Width": 123
                    }
                  }
                ],
                "options": {
                  "__type": "ComGUIButtonSurrogate:#EditorCommon.JsonModel.Component.GUI",
                  "classname": "Button",
                  "name": "btn_Powerup_1",
                  "ZOrder": 0,
                  "actiontag": 7001,
                  "anchorPointX": 0.5,
                  "anchorPointY": 0.5,
                  "classType": null,
                  "colorB": 255,
                  "colorG": 255,
                  "colorR": 255,
                  "flipX": false,
                  "flipY": false,
                  "height": 107,
                  "ignoreSize": true,
                  "layoutParameter": null,
                  "opacity": 255,
                  "positionPercentX": 0.64,
                  "positionPercentY": 0.55,
                  "positionType": 0,
                  "rotation": 0,
                  "scaleX": 0.5999999,
                  "scaleY": 0.55,
                  "sizePercentX": 0.64,
                  "sizePercentY": 1.06999993,
                  "sizeType": 0,
                  "tag": 408,
                  "touchAble": false,
                  "useMergedTexture": false,
                  "visible": true,
                  "width": 96,
                  "x": 96,
                  "y": 55,
                  "capInsetsHeight": 0,
                  "capInsetsWidth": 0,
                  "capInsetsX": 0,
                  "capInsetsY": 0,
                  "disabled": null,
                  "disabledData": {
                    "path": null,
                    "plistFile": null,
                    "resourceType": 0
                  },
                  "normal": null,
                  "normalData": {
                    "path": "boosts/boost_item_bg_n.png",
                    "plistFile": null,
                    "resourceType": 0
                  },
                  "pressed": null,
                  "pressedData": {
                    "path": "boosts/boost_item_bg_p.png",
                    "plistFile": null,
                    "resourceType": 0
                  },
                  "scale9Enable": false,
                  "scale9Height": 107,
                  "scale9Width": 96
                }
              },
              {
                "classname": "Button",
                "name": null,
                "children": [
                  {
                    "classname": "ImageView",
                    "name": null,
                    "children": [],
                    "options": {
                      "__type": "ComGUIImageViewSurrogate:#EditorCommon.JsonModel.Component.GUI",
                      "classname": "ImageView",
                      "name": "imgView_Powerup_2",
                      "ZOrder": 0,
                      "actiontag": 7009,
                      "anchorPointX": 0.5,
                      "anchorPointY": 0.5,
                      "classType": null,
                      "colorB": 255,
                      "colorG": 255,
                      "colorR": 255,
                      "flipX": false,
                      "flipY": false,
                      "height": 134,
                      "ignoreSize": true,
                      "layoutParameter": null,
                      "opacity": 255,
                      "positionPercentX": 0,
                      "positionPercentY": 0,
                      "positionType": 0,
                      "rotation": 0,
                      "scaleX": 0.6,
                      "scaleY": 0.6,
                      "sizePercentX": 1.25,
                      "sizePercentY": 1.25,
                      "sizeType": 0,
                      "tag": 400,
                      "touchAble": false,
                      "useMergedTexture": false,
                      "visible": true,
                      "width": 120,
                      "x": 0,
                      "y": 0,
                      "capInsetsHeight": 0,
                      "capInsetsWidth": 0,
                      "capInsetsX": 0,
                      "capInsetsY": 0,
                      "fileName": null,
                      "fileNameData": {
                        "path": "boosts/boost_9.png",
                        "plistFile": null,
                        "resourceType": 0
                      },
                      "scale9Enable": false,
                      "scale9Height": 134,
                      "scale9Width": 120
                    }
                  }
                ],
                "options": {
                  "__type": "ComGUIButtonSurrogate:#EditorCommon.JsonModel.Component.GUI",
                  "classname": "Button",
                  "name": "btn_Powerup_2",
                  "ZOrder": 0,
                  "actiontag": 7002,
                  "anchorPointX": 0.5,
                  "anchorPointY": 0.5,
                  "classType": null,
                  "colorB": 255,
                  "colorG": 255,
                  "colorR": 255,
                  "flipX": false,
                  "flipY": false,
                  "height": 107,
                  "ignoreSize": true,
                  "layoutParameter": null,
                  "opacity": 255,
                  "positionPercentX": 0.653333247,
                  "positionPercentY": -0.29,
                  "positionType": 0,
                  "rotation": 0,
                  "scaleX": 0.5999999,
                  "scaleY": 0.55,
                  "sizePercentX": 0.64,
                  "sizePercentY": 1.06999993,
                  "sizeType": 0,
                  "tag": 408,
                  "touchAble": false,
                  "useMergedTexture": false,
                  "visible": true,
                  "width": 96,
                  "x": 98,
                  "y": -29,
                  "capInsetsHeight": 0,
                  "capInsetsWidth": 0,
                  "capInsetsX": 0,
                  "capInsetsY": 0,
                  "disabled": null,
                  "disabledData": {
                    "path": null,
                    "plistFile": null,
                    "resourceType": 0
                  },
                  "normal": null,
                  "normalData": {
                    "path": "boosts/boost_item_bg_n.png",
                    "plistFile": null,
                    "resourceType": 0
                  },
                  "pressed": null,
                  "pressedData": {
                    "path": "boosts/boost_item_bg_p.png",
                    "plistFile": null,
                    "resourceType": 0
                  },
                  "scale9Enable": false,
                  "scale9Height": 107,
                  "scale9Width": 96
                }
              },
              {
                "classname": "Button",
                "name": null,
                "children": [
                  {
                    "classname": "ImageView",
                    "name": null,
                    "children": [],
                    "options": {
                      "__type": "ComGUIImageViewSurrogate:#EditorCommon.JsonModel.Component.GUI",
                      "classname": "ImageView",
                      "name": "imgView_Powerup_3",
                      "ZOrder": 0,
                      "actiontag": 7010,
                      "anchorPointX": 0.5,
                      "anchorPointY": 0.5,
                      "classType": null,
                      "colorB": 255,
                      "colorG": 255,
                      "colorR": 255,
                      "flipX": false,
                      "flipY": false,
                      "height": 139,
                      "ignoreSize": true,
                      "layoutParameter": null,
                      "opacity": 255,
                      "positionPercentX": 0,
                      "positionPercentY": 0,
                      "positionType": 0,
                      "rotation": 0,
                      "scaleX": 0.6,
                      "scaleY": 0.6,
                      "sizePercentX": 1.53,
                      "sizePercentY": 1.3,
                      "sizeType": 0,
                      "tag": 400,
                      "touchAble": false,
                      "useMergedTexture": false,
                      "visible": true,
                      "width": 147,
                      "x": 0,
                      "y": 0,
                      "capInsetsHeight": 0,
                      "capInsetsWidth": 0,
                      "capInsetsX": 0,
                      "capInsetsY": 0,
                      "fileName": null,
                      "fileNameData": {
                        "path": "boosts/boost_8.png",
                        "plistFile": null,
                        "resourceType": 0
                      },
                      "scale9Enable": false,
                      "scale9Height": 139,
                      "scale9Width": 147
                    }
                  }
                ],
                "options": {
                  "__type": "ComGUIButtonSurrogate:#EditorCommon.JsonModel.Component.GUI",
                  "classname": "Button",
                  "name": "btn_Powerup_3",
                  "ZOrder": 0,
                  "actiontag": 7003,
                  "anchorPointX": 0.5,
                  "anchorPointY": 0.5,
                  "classType": null,
                  "colorB": 255,
                  "colorG": 255,
                  "colorR": 255,
                  "flipX": false,
                  "flipY": false,
                  "height": 107,
                  "ignoreSize": true,
                  "layoutParameter": null,
                  "opacity": 255,
                  "positionPercentX": 0.646666646,
                  "positionPercentY": -1.13,
                  "positionType": 0,
                  "rotation": 0,
                  "scaleX": 0.5999999,
                  "scaleY": 0.55,
                  "sizePercentX": 0.64,
                  "sizePercentY": 1.06999993,
                  "sizeType": 0,
                  "tag": 408,
                  "touchAble": false,
                  "useMergedTexture": false,
                  "visible": true,
                  "width": 96,
                  "x": 97,
                  "y": -113,
                  "capInsetsHeight": 0,
                  "capInsetsWidth": 0,
                  "capInsetsX": 0,
                  "capInsetsY": 0,
                  "disabled": null,
                  "disabledData": {
                    "path": null,
                    "plistFile": null,
                    "resourceType": 0
                  },
                  "normal": null,
                  "normalData": {
                    "path": "boosts/boost_item_bg_n.png",
                    "plistFile": null,
                    "resourceType": 0
                  },
                  "pressed": null,
                  "pressedData": {
                    "path": "boosts/boost_item_bg_p.png",
                    "plistFile": null,
                    "resourceType": 0
                  },
                  "scale9Enable": false,
                  "scale9Height": 107,
                  "scale9Width": 96
                }
              },
              {
                "classname": "Button",
                "name": null,
                "children": [
                  {
                    "classname": "ImageView",
                    "name": null,
                    "children": [],
                    "options": {
                      "__type": "ComGUIImageViewSurrogate:#EditorCommon.JsonModel.Component.GUI",
                      "classname": "ImageView",
                      "name": "imgView_Powerup_4",
                      "ZOrder": 0,
                      "actiontag": 7011,
                      "anchorPointX": 0.5,
                      "anchorPointY": 0.5,
                      "classType": null,
                      "colorB": 255,
                      "colorG": 255,
                      "colorR": 255,
                      "flipX": false,
                      "flipY": false,
                      "height": 140,
                      "ignoreSize": true,
                      "layoutParameter": null,
                      "opacity": 255,
                      "positionPercentX": 0,
                      "positionPercentY": 0,
                      "positionType": 0,
                      "rotation": 0,
                      "scaleX": 0.6,
                      "scaleY": 0.6,
                      "sizePercentX": 0.9,
                      "sizePercentY": 1.31,
                      "sizeType": 0,
                      "tag": 400,
                      "touchAble": false,
                      "useMergedTexture": false,
                      "visible": true,
                      "width": 86,
                      "x": 0,
                      "y": 0,
                      "capInsetsHeight": 0,
                      "capInsetsWidth": 0,
                      "capInsetsX": 0,
                      "capInsetsY": 0,
                      "fileName": null,
                      "fileNameData": {
                        "path": "boosts/boost_7.png",
                        "plistFile": null,
                        "resourceType": 0
                      },
                      "scale9Enable": false,
                      "scale9Height": 140,
                      "scale9Width": 86
                    }
                  }
                ],
                "options": {
                  "__type": "ComGUIButtonSurrogate:#EditorCommon.JsonModel.Component.GUI",
                  "classname": "Button",
                  "name": "btn_Powerup_4",
                  "ZOrder": 0,
                  "actiontag": 7004,
                  "anchorPointX": 0.5,
                  "anchorPointY": 0.5,
                  "classType": null,
                  "colorB": 255,
                  "colorG": 255,
                  "colorR": 255,
                  "flipX": false,
                  "flipY": false,
                  "height": 107,
                  "ignoreSize": true,
                  "layoutParameter": null,
                  "opacity": 255,
                  "positionPercentX": 0.6666667,
                  "positionPercentY": -1.94999993,
                  "positionType": 0,
                  "rotation": 0,
                  "scaleX": 0.5999999,
                  "scaleY": 0.55,
                  "sizePercentX": 0.64,
                  "sizePercentY": 1.06999993,
                  "sizeType": 0,
                  "tag": 408,
                  "touchAble": false,
                  "useMergedTexture": false,
                  "visible": true,
                  "width": 96,
                  "x": 100,
                  "y": -195,
                  "capInsetsHeight": 0,
                  "capInsetsWidth": 0,
                  "capInsetsX": 0,
                  "capInsetsY": 0,
                  "disabled": null,
                  "disabledData": {
                    "path": null,
                    "plistFile": null,
                    "resourceType": 0
                  },
                  "normal": null,
                  "normalData": {
                    "path": "boosts/boost_item_bg_n.png",
                    "plistFile": null,
                    "resourceType": 0
                  },
                  "pressed": null,
                  "pressedData": {
                    "path": "boosts/boost_item_bg_p.png",
                    "plistFile": null,
                    "resourceType": 0
                  },
                  "scale9Enable": false,
                  "scale9Height": 107,
                  "scale9Width": 96
                }
              },
              {
                "classname": "Button",
                "name": null,
                "children": [
                  {
                    "classname": "ImageView",
                    "name": null,
                    "children": [],
                    "options": {
                      "__type": "ComGUIImageViewSurrogate:#EditorCommon.JsonModel.Component.GUI",
                      "classname": "ImageView",
                      "name": "imgView_Powerup_5",
                      "ZOrder": 0,
                      "actiontag": 7012,
                      "anchorPointX": 0.5,
                      "anchorPointY": 0.5,
                      "classType": null,
                      "colorB": 255,
                      "colorG": 255,
                      "colorR": 255,
                      "flipX": false,
                      "flipY": false,
                      "height": 97,
                      "ignoreSize": true,
                      "layoutParameter": null,
                      "opacity": 255,
                      "positionPercentX": 0,
                      "positionPercentY": 0,
                      "positionType": 0,
                      "rotation": 0,
                      "scaleX": 0.6,
                      "scaleY": 0.6,
                      "sizePercentX": 1.68,
                      "sizePercentY": 0.909999967,
                      "sizeType": 0,
                      "tag": 400,
                      "touchAble": false,
                      "useMergedTexture": false,
                      "visible": true,
                      "width": 161,
                      "x": 0,
                      "y": 0,
                      "capInsetsHeight": 0,
                      "capInsetsWidth": 0,
                      "capInsetsX": 0,
                      "capInsetsY": 0,
                      "fileName": null,
                      "fileNameData": {
                        "path": "boosts/boost_2.png",
                        "plistFile": null,
                        "resourceType": 0
                      },
                      "scale9Enable": false,
                      "scale9Height": 97,
                      "scale9Width": 161
                    }
                  }
                ],
                "options": {
                  "__type": "ComGUIButtonSurrogate:#EditorCommon.JsonModel.Component.GUI",
                  "classname": "Button",
                  "name": "btn_Powerup_5",
                  "ZOrder": 0,
                  "actiontag": 7005,
                  "anchorPointX": 0.5,
                  "anchorPointY": 0.5,
                  "classType": null,
                  "colorB": 255,
                  "colorG": 255,
                  "colorR": 255,
                  "flipX": false,
                  "flipY": false,
                  "height": 107,
                  "ignoreSize": true,
                  "layoutParameter": null,
                  "opacity": 255,
                  "positionPercentX": 0.706666648,
                  "positionPercentY": -2.77,
                  "positionType": 0,
                  "rotation": 0,
                  "scaleX": 0.5999999,
                  "scaleY": 0.55,
                  "sizePercentX": 0.64,
                  "sizePercentY": 1.06999993,
                  "sizeType": 0,
                  "tag": 408,
                  "touchAble": false,
                  "useMergedTexture": false,
                  "visible": true,
                  "width": 96,
                  "x": 106,
                  "y": -277,
                  "capInsetsHeight": 0,
                  "capInsetsWidth": 0,
                  "capInsetsX": 0,
                  "capInsetsY": 0,
                  "disabled": null,
                  "disabledData": {
                    "path": null,
                    "plistFile": null,
                    "resourceType": 0
                  },
                  "normal": null,
                  "normalData": {
                    "path": "boosts/boost_item_bg_n.png",
                    "plistFile": null,
                    "resourceType": 0
                  },
                  "pressed": null,
                  "pressedData": {
                    "path": "boosts/boost_item_bg_p.png",
                    "plistFile": null,
                    "resourceType": 0
                  },
                  "scale9Enable": false,
                  "scale9Height": 107,
                  "scale9Width": 96
                }
              }
            ],
            "options": {
              "__type": "ComGUIPanelSurrogate:#EditorCommon.JsonModel.Component.GUI",
              "classname": "Panel",
              "name": "ActionBar",
              "ZOrder": 0,
              "actiontag": 5023,
              "anchorPointX": 0,
              "anchorPointY": 0,
              "classType": null,
              "colorB": 255,
              "colorG": 255,
              "colorR": 255,
              "flipX": false,
              "flipY": false,
              "height": 100,
              "ignoreSize": false,
              "layoutParameter": null,
              "opacity": 255,
              "positionPercentX": 0,
              "positionPercentY": 0.494791627,
              "positionType": 0,
              "rotation": 0,
              "scaleX": 1,
              "scaleY": 1,
              "sizePercentX": 0.149999991,
              "sizePercentY": 0.13,
              "sizeType": 0,
              "tag": 317,
              "touchAble": false,
              "useMergedTexture": false,
              "visible": true,
              "width": 150,
              "x": 0,
              "y": 380,
              "backGroundImage": null,
              "backGroundImageData": null,
              "backGroundScale9Enable": false,
              "bgColorB": 255,
              "bgColorG": 200,
              "bgColorOpacity": 100,
              "bgColorR": 150,
              "bgEndColorB": 255,
              "bgEndColorG": 0,
              "bgEndColorR": 0,
              "bgStartColorB": 255,
              "bgStartColorG": 255,
              "bgStartColorR": 255,
              "capInsetsHeight": 0,
              "capInsetsWidth": 0,
              "capInsetsX": 0,
              "capInsetsY": 0,
              "clipAble": false,
              "colorType": 0,
              "layoutType": 0,
              "vectorX": 0,
              "vectorY": -0.5
            }
          },
          {
            "classname": "ImageView",
            "name": null,
            "children": [
              {
                "classname": "Button",
                "name": null,
                "children": [
                  {
                    "classname": "ImageView",
                    "name": null,
                    "children": [
                      {
                        "classname": "Label",
                        "name": null,
                        "children": [],
                        "options": {
                          "__type": "ComGUILabelSurrogate:#EditorCommon.JsonModel.Component.GUI",
                          "classname": "Label",
                          "name": "lblBoostCount",
                          "ZOrder": 0,
                          "actiontag": 4179,
                          "anchorPointX": 0.5,
                          "anchorPointY": 0.5,
                          "classType": null,
                          "colorB": 175,
                          "colorG": 176,
                          "colorR": 177,
                          "flipX": false,
                          "flipY": false,
                          "height": 23,
                          "ignoreSize": true,
                          "layoutParameter": null,
                          "opacity": 255,
                          "positionPercentX": 0.049999997,
                          "positionPercentY": 0.049999997,
                          "positionType": 0,
                          "rotation": 0,
                          "scaleX": 1,
                          "scaleY": 1,
                          "sizePercentX": 0.45,
                          "sizePercentY": 0.88,
                          "sizeType": 0,
                          "tag": 346,
                          "touchAble": false,
                          "useMergedTexture": false,
                          "visible": true,
                          "width": 90,
                          "x": 2,
                          "y": 2,
                          "fontName": "宋体",
                          "fontSize": 30,
                          "fontType": 0,
                          "text": "+",
                          "touchScaleEnable": false
                        }
                      }
                    ],
                    "options": {
                      "__type": "ComGUIImageViewSurrogate:#EditorCommon.JsonModel.Component.GUI",
                      "classname": "ImageView",
                      "name": "ImageCounter",
                      "ZOrder": 10,
                      "actiontag": 4178,
                      "anchorPointX": 0.5,
                      "anchorPointY": 0.5,
                      "classType": null,
                      "colorB": 255,
                      "colorG": 255,
                      "colorR": 255,
                      "flipX": false,
                      "flipY": false,
                      "height": 40,
                      "ignoreSize": true,
                      "layoutParameter": null,
                      "opacity": 255,
                      "positionPercentX": 0.270833343,
                      "positionPercentY": -0.2947368,
                      "positionType": 0,
                      "rotation": 0,
                      "scaleX": 1,
                      "scaleY": 1,
                      "sizePercentX": 0.42,
                      "sizePercentY": 0.42,
                      "sizeType": 0,
                      "tag": 345,
                      "touchAble": false,
                      "useMergedTexture": false,
                      "visible": true,
                      "width": 40,
                      "x": 26,
                      "y": -28,
                      "capInsetsHeight": 0,
                      "capInsetsWidth": 0,
                      "capInsetsX": 0,
                      "capInsetsY": 0,
                      "fileName": null,
                      "fileNameData": {
                        "path": "game/btn_boost_plus.png",
                        "plistFile": null,
                        "resourceType": 0
                      },
                      "scale9Enable": false,
                      "scale9Height": 40,
                      "scale9Width": 40
                    }
                  }
                ],
                "options": {
                  "__type": "ComGUIButtonSurrogate:#EditorCommon.JsonModel.Component.GUI",
                  "classname": "Button",
                  "name": "btnBoost1",
                  "ZOrder": 0,
                  "actiontag": 452,
                  "anchorPointX": 0.5,
                  "anchorPointY": 0.5,
                  "classType": null,
                  "colorB": 255,
                  "colorG": 255,
                  "colorR": 255,
                  "flipX": false,
                  "flipY": false,
                  "height": 95,
                  "ignoreSize": true,
                  "layoutParameter": null,
                  "opacity": 255,
                  "positionPercentX": -0.232323214,
                  "positionPercentY": 0.235897437,
                  "positionType": 0,
                  "rotation": 0,
                  "scaleX": 1,
                  "scaleY": 1,
                  "sizePercentX": 0.48,
                  "sizePercentY": 0.48999998,
                  "sizeType": 0,
                  "tag": 412,
                  "touchAble": true,
                  "useMergedTexture": false,
                  "visible": true,
                  "width": 96,
                  "x": -46,
                  "y": 46,
                  "capInsetsHeight": 0,
                  "capInsetsWidth": 0,
                  "capInsetsX": 0,
                  "capInsetsY": 0,
                  "disabled": null,
                  "disabledData": {
                    "path": null,
                    "plistFile": null,
                    "resourceType": 0
                  },
                  "normal": null,
                  "normalData": {
                    "path": "game/btn_boost_n.png",
                    "plistFile": null,
                    "resourceType": 0
                  },
                  "pressed": null,
                  "pressedData": {
                    "path": "game/btn_boost_p.png",
                    "plistFile": null,
                    "resourceType": 0
                  },
                  "scale9Enable": false,
                  "scale9Height": 95,
                  "scale9Width": 96
                }
              },
              {
                "classname": "Button",
                "name": null,
                "children": [
                  {
                    "classname": "ImageView",
                    "name": null,
                    "children": [
                      {
                        "classname": "Label",
                        "name": null,
                        "children": [],
                        "options": {
                          "__type": "ComGUILabelSurrogate:#EditorCommon.JsonModel.Component.GUI",
                          "classname": "Label",
                          "name": "lblBoostCount",
                          "ZOrder": 0,
                          "actiontag": 4181,
                          "anchorPointX": 0.5,
                          "anchorPointY": 0.5,
                          "classType": null,
                          "colorB": 175,
                          "colorG": 176,
                          "colorR": 177,
                          "flipX": false,
                          "flipY": false,
                          "height": 23,
                          "ignoreSize": true,
                          "layoutParameter": null,
                          "opacity": 255,
                          "positionPercentX": 0.049999997,
                          "positionPercentY": 0.049999997,
                          "positionType": 0,
                          "rotation": 0,
                          "scaleX": 1,
                          "scaleY": 1,
                          "sizePercentX": 0.45,
                          "sizePercentY": 0.88,
                          "sizeType": 0,
                          "tag": 346,
                          "touchAble": false,
                          "useMergedTexture": false,
                          "visible": true,
                          "width": 90,
                          "x": 2,
                          "y": 2,
                          "fontName": "宋体",
                          "fontSize": 30,
                          "fontType": 0,
                          "text": "+",
                          "touchScaleEnable": false
                        }
                      }
                    ],
                    "options": {
                      "__type": "ComGUIImageViewSurrogate:#EditorCommon.JsonModel.Component.GUI",
                      "classname": "ImageView",
                      "name": "ImageCounter_0",
                      "ZOrder": 10,
                      "actiontag": 4180,
                      "anchorPointX": 0.5,
                      "anchorPointY": 0.5,
                      "classType": null,
                      "colorB": 255,
                      "colorG": 255,
                      "colorR": 255,
                      "flipX": false,
                      "flipY": false,
                      "height": 40,
                      "ignoreSize": true,
                      "layoutParameter": null,
                      "opacity": 255,
                      "positionPercentX": 0.270833343,
                      "positionPercentY": -0.2947368,
                      "positionType": 0,
                      "rotation": 0,
                      "scaleX": 1,
                      "scaleY": 1,
                      "sizePercentX": 0.42,
                      "sizePercentY": 0.42,
                      "sizeType": 0,
                      "tag": 345,
                      "touchAble": false,
                      "useMergedTexture": false,
                      "visible": true,
                      "width": 40,
                      "x": 26,
                      "y": -28,
                      "capInsetsHeight": 0,
                      "capInsetsWidth": 0,
                      "capInsetsX": 0,
                      "capInsetsY": 0,
                      "fileName": null,
                      "fileNameData": {
                        "path": "game/btn_boost_plus.png",
                        "plistFile": null,
                        "resourceType": 0
                      },
                      "scale9Enable": false,
                      "scale9Height": 40,
                      "scale9Width": 40
                    }
                  }
                ],
                "options": {
                  "__type": "ComGUIButtonSurrogate:#EditorCommon.JsonModel.Component.GUI",
                  "classname": "Button",
                  "name": "btnBoost2",
                  "ZOrder": 0,
                  "actiontag": 454,
                  "anchorPointX": 0.5,
                  "anchorPointY": 0.5,
                  "classType": null,
                  "colorB": 255,
                  "colorG": 255,
                  "colorR": 255,
                  "flipX": false,
                  "flipY": false,
                  "height": 95,
                  "ignoreSize": true,
                  "layoutParameter": null,
                  "opacity": 255,
                  "positionPercentX": 0.242424235,
                  "positionPercentY": 0.235897437,
                  "positionType": 0,
                  "rotation": 0,
                  "scaleX": 1,
                  "scaleY": 1,
                  "sizePercentX": 0.48,
                  "sizePercentY": 0.48999998,
                  "sizeType": 0,
                  "tag": 412,
                  "touchAble": true,
                  "useMergedTexture": false,
                  "visible": true,
                  "width": 96,
                  "x": 48,
                  "y": 46,
                  "capInsetsHeight": 0,
                  "capInsetsWidth": 0,
                  "capInsetsX": 0,
                  "capInsetsY": 0,
                  "disabled": null,
                  "disabledData": {
                    "path": null,
                    "plistFile": null,
                    "resourceType": 0
                  },
                  "normal": null,
                  "normalData": {
                    "path": "game/btn_boost_n.png",
                    "plistFile": null,
                    "resourceType": 0
                  },
                  "pressed": null,
                  "pressedData": {
                    "path": "game/btn_boost_p.png",
                    "plistFile": null,
                    "resourceType": 0
                  },
                  "scale9Enable": false,
                  "scale9Height": 95,
                  "scale9Width": 96
                }
              },
              {
                "classname": "Button",
                "name": null,
                "children": [
                  {
                    "classname": "ImageView",
                    "name": null,
                    "children": [
                      {
                        "classname": "Label",
                        "name": null,
                        "children": [],
                        "options": {
                          "__type": "ComGUILabelSurrogate:#EditorCommon.JsonModel.Component.GUI",
                          "classname": "Label",
                          "name": "lblBoostCount",
                          "ZOrder": 0,
                          "actiontag": 4183,
                          "anchorPointX": 0.5,
                          "anchorPointY": 0.5,
                          "classType": null,
                          "colorB": 175,
                          "colorG": 176,
                          "colorR": 177,
                          "flipX": false,
                          "flipY": false,
                          "height": 23,
                          "ignoreSize": true,
                          "layoutParameter": null,
                          "opacity": 255,
                          "positionPercentX": 0.049999997,
                          "positionPercentY": 0.049999997,
                          "positionType": 0,
                          "rotation": 0,
                          "scaleX": 1,
                          "scaleY": 1,
                          "sizePercentX": 0.45,
                          "sizePercentY": 0.88,
                          "sizeType": 0,
                          "tag": 346,
                          "touchAble": false,
                          "useMergedTexture": false,
                          "visible": true,
                          "width": 90,
                          "x": 2,
                          "y": 2,
                          "fontName": "宋体",
                          "fontSize": 30,
                          "fontType": 0,
                          "text": "+",
                          "touchScaleEnable": false
                        }
                      }
                    ],
                    "options": {
                      "__type": "ComGUIImageViewSurrogate:#EditorCommon.JsonModel.Component.GUI",
                      "classname": "ImageView",
                      "name": "ImageCounter_1",
                      "ZOrder": 10,
                      "actiontag": 4182,
                      "anchorPointX": 0.5,
                      "anchorPointY": 0.5,
                      "classType": null,
                      "colorB": 255,
                      "colorG": 255,
                      "colorR": 255,
                      "flipX": false,
                      "flipY": false,
                      "height": 40,
                      "ignoreSize": true,
                      "layoutParameter": null,
                      "opacity": 255,
                      "positionPercentX": 0.270833343,
                      "positionPercentY": -0.2947368,
                      "positionType": 0,
                      "rotation": 0,
                      "scaleX": 1,
                      "scaleY": 1,
                      "sizePercentX": 0.42,
                      "sizePercentY": 0.42,
                      "sizeType": 0,
                      "tag": 345,
                      "touchAble": false,
                      "useMergedTexture": false,
                      "visible": true,
                      "width": 40,
                      "x": 26,
                      "y": -28,
                      "capInsetsHeight": 0,
                      "capInsetsWidth": 0,
                      "capInsetsX": 0,
                      "capInsetsY": 0,
                      "fileName": null,
                      "fileNameData": {
                        "path": "game/btn_boost_plus.png",
                        "plistFile": null,
                        "resourceType": 0
                      },
                      "scale9Enable": false,
                      "scale9Height": 40,
                      "scale9Width": 40
                    }
                  }
                ],
                "options": {
                  "__type": "ComGUIButtonSurrogate:#EditorCommon.JsonModel.Component.GUI",
                  "classname": "Button",
                  "name": "btnBoost3",
                  "ZOrder": 0,
                  "actiontag": 458,
                  "anchorPointX": 0.5,
                  "anchorPointY": 0.5,
                  "classType": null,
                  "colorB": 255,
                  "colorG": 255,
                  "colorR": 255,
                  "flipX": false,
                  "flipY": false,
                  "height": 95,
                  "ignoreSize": true,
                  "layoutParameter": null,
                  "opacity": 255,
                  "positionPercentX": -0.232323214,
                  "positionPercentY": -0.246153846,
                  "positionType": 0,
                  "rotation": 0,
                  "scaleX": 1,
                  "scaleY": 1,
                  "sizePercentX": 0.48,
                  "sizePercentY": 0.48999998,
                  "sizeType": 0,
                  "tag": 412,
                  "touchAble": true,
                  "useMergedTexture": false,
                  "visible": true,
                  "width": 96,
                  "x": -46,
                  "y": -48,
                  "capInsetsHeight": 0,
                  "capInsetsWidth": 0,
                  "capInsetsX": 0,
                  "capInsetsY": 0,
                  "disabled": null,
                  "disabledData": {
                    "path": null,
                    "plistFile": null,
                    "resourceType": 0
                  },
                  "normal": null,
                  "normalData": {
                    "path": "game/btn_boost_n.png",
                    "plistFile": null,
                    "resourceType": 0
                  },
                  "pressed": null,
                  "pressedData": {
                    "path": "game/btn_boost_p.png",
                    "plistFile": null,
                    "resourceType": 0
                  },
                  "scale9Enable": false,
                  "scale9Height": 95,
                  "scale9Width": 96
                }
              },
              {
                "classname": "Button",
                "name": null,
                "children": [
                  {
                    "classname": "ImageView",
                    "name": null,
                    "children": [
                      {
                        "classname": "Label",
                        "name": null,
                        "children": [],
                        "options": {
                          "__type": "ComGUILabelSurrogate:#EditorCommon.JsonModel.Component.GUI",
                          "classname": "Label",
                          "name": "lblBoostCount",
                          "ZOrder": 0,
                          "actiontag": 4185,
                          "anchorPointX": 0.5,
                          "anchorPointY": 0.5,
                          "classType": null,
                          "colorB": 175,
                          "colorG": 176,
                          "colorR": 177,
                          "flipX": false,
                          "flipY": false,
                          "height": 23,
                          "ignoreSize": true,
                          "layoutParameter": null,
                          "opacity": 255,
                          "positionPercentX": 0.049999997,
                          "positionPercentY": 0.049999997,
                          "positionType": 0,
                          "rotation": 0,
                          "scaleX": 1,
                          "scaleY": 1,
                          "sizePercentX": 0.45,
                          "sizePercentY": 0.88,
                          "sizeType": 0,
                          "tag": 346,
                          "touchAble": false,
                          "useMergedTexture": false,
                          "visible": true,
                          "width": 90,
                          "x": 2,
                          "y": 2,
                          "fontName": "宋体",
                          "fontSize": 30,
                          "fontType": 0,
                          "text": "+",
                          "touchScaleEnable": false
                        }
                      }
                    ],
                    "options": {
                      "__type": "ComGUIImageViewSurrogate:#EditorCommon.JsonModel.Component.GUI",
                      "classname": "ImageView",
                      "name": "ImageCounter_2",
                      "ZOrder": 10,
                      "actiontag": 4184,
                      "anchorPointX": 0.5,
                      "anchorPointY": 0.5,
                      "classType": null,
                      "colorB": 255,
                      "colorG": 255,
                      "colorR": 255,
                      "flipX": false,
                      "flipY": false,
                      "height": 40,
                      "ignoreSize": true,
                      "layoutParameter": null,
                      "opacity": 255,
                      "positionPercentX": 0.270833343,
                      "positionPercentY": -0.2947368,
                      "positionType": 0,
                      "rotation": 0,
                      "scaleX": 1,
                      "scaleY": 1,
                      "sizePercentX": 0.42,
                      "sizePercentY": 0.42,
                      "sizeType": 0,
                      "tag": 345,
                      "touchAble": false,
                      "useMergedTexture": false,
                      "visible": true,
                      "width": 40,
                      "x": 26,
                      "y": -28,
                      "capInsetsHeight": 0,
                      "capInsetsWidth": 0,
                      "capInsetsX": 0,
                      "capInsetsY": 0,
                      "fileName": null,
                      "fileNameData": {
                        "path": "game/btn_boost_plus.png",
                        "plistFile": null,
                        "resourceType": 0
                      },
                      "scale9Enable": false,
                      "scale9Height": 40,
                      "scale9Width": 40
                    }
                  }
                ],
                "options": {
                  "__type": "ComGUIButtonSurrogate:#EditorCommon.JsonModel.Component.GUI",
                  "classname": "Button",
                  "name": "btnBoost4",
                  "ZOrder": 0,
                  "actiontag": 456,
                  "anchorPointX": 0.5,
                  "anchorPointY": 0.5,
                  "classType": null,
                  "colorB": 255,
                  "colorG": 255,
                  "colorR": 255,
                  "flipX": false,
                  "flipY": false,
                  "height": 95,
                  "ignoreSize": true,
                  "layoutParameter": null,
                  "opacity": 255,
                  "positionPercentX": 0.242424235,
                  "positionPercentY": -0.246153846,
                  "positionType": 0,
                  "rotation": 0,
                  "scaleX": 1,
                  "scaleY": 1,
                  "sizePercentX": 0.48,
                  "sizePercentY": 0.48999998,
                  "sizeType": 0,
                  "tag": 412,
                  "touchAble": true,
                  "useMergedTexture": false,
                  "visible": true,
                  "width": 96,
                  "x": 48,
                  "y": -48,
                  "capInsetsHeight": 0,
                  "capInsetsWidth": 0,
                  "capInsetsX": 0,
                  "capInsetsY": 0,
                  "disabled": null,
                  "disabledData": {
                    "path": null,
                    "plistFile": null,
                    "resourceType": 0
                  },
                  "normal": null,
                  "normalData": {
                    "path": "game/btn_boost_n.png",
                    "plistFile": null,
                    "resourceType": 0
                  },
                  "pressed": null,
                  "pressedData": {
                    "path": "game/btn_boost_p.png",
                    "plistFile": null,
                    "resourceType": 0
                  },
                  "scale9Enable": false,
                  "scale9Height": 95,
                  "scale9Width": 96
                }
              }
            ],
            "options": {
              "__type": "ComGUIImageViewSurrogate:#EditorCommon.JsonModel.Component.GUI",
              "classname": "ImageView",
              "name": "boostPane",
              "ZOrder": 2,
              "actiontag": 451,
              "anchorPointX": 0.5,
              "anchorPointY": 0.5,
              "classType": null,
              "colorB": 255,
              "colorG": 255,
              "colorR": 255,
              "flipX": false,
              "flipY": false,
              "height": 195,
              "ignoreSize": true,
              "layoutParameter": null,
              "opacity": 255,
              "positionPercentX": 0.735351563,
              "positionPercentY": -0.217447922,
              "positionType": 0,
              "rotation": 0,
              "scaleX": 1,
              "scaleY": 1,
              "sizePercentX": 0.19,
              "sizePercentY": 0.25,
              "sizeType": 0,
              "tag": 411,
              "touchAble": false,
              "useMergedTexture": false,
              "visible": true,
              "width": 198,
              "x": 753,
              "y": -167,
              "capInsetsHeight": 0,
              "capInsetsWidth": 0,
              "capInsetsX": 0,
              "capInsetsY": 0,
              "fileName": null,
              "fileNameData": {
                "path": "game/boost_pane.png",
                "plistFile": null,
                "resourceType": 0
              },
              "scale9Enable": false,
              "scale9Height": 195,
              "scale9Width": 198
            }
          }
        ],
        "options": {
          "__type": "ComGUIPanelSurrogate:#EditorCommon.JsonModel.Component.GUI",
          "classname": "Panel",
          "name": "MainPanel",
          "ZOrder": 1,
          "actiontag": 438,
          "anchorPointX": 0,
          "anchorPointY": 0,
          "classType": null,
          "colorB": 255,
          "colorG": 255,
          "colorR": 255,
          "flipX": false,
          "flipY": false,
          "height": 768,
          "ignoreSize": false,
          "layoutParameter": null,
          "opacity": 255,
          "positionPercentX": 0,
          "positionPercentY": 0,
          "positionType": 0,
          "rotation": 0,
          "scaleX": 1,
          "scaleY": 1,
          "sizePercentX": 1,
          "sizePercentY": 1,
          "sizeType": 0,
          "tag": 398,
          "touchAble": false,
          "useMergedTexture": false,
          "visible": true,
          "width": 1024,
          "x": 0,
          "y": 0,
          "backGroundImage": null,
          "backGroundImageData": null,
          "backGroundScale9Enable": false,
          "bgColorB": 255,
          "bgColorG": 200,
          "bgColorOpacity": 100,
          "bgColorR": 150,
          "bgEndColorB": 255,
          "bgEndColorG": 0,
          "bgEndColorR": 0,
          "bgStartColorB": 255,
          "bgStartColorG": 255,
          "bgStartColorR": 255,
          "capInsetsHeight": 0,
          "capInsetsWidth": 0,
          "capInsetsX": 0,
          "capInsetsY": 0,
          "clipAble": false,
          "colorType": 0,
          "layoutType": 0,
          "vectorX": 0,
          "vectorY": -0.5
        }
      }
    ],
    "options": {
      "__type": "ComGUIPanelSurrogate:#EditorCommon.JsonModel.Component.GUI",
      "classname": "Panel",
      "name": "Panel",
      "ZOrder": 0,
      "actiontag": -1,
      "anchorPointX": 0,
      "anchorPointY": 0,
      "classType": null,
      "colorB": 255,
      "colorG": 255,
      "colorR": 255,
      "flipX": false,
      "flipY": false,
      "height": 768,
      "ignoreSize": false,
      "layoutParameter": null,
      "opacity": 255,
      "positionPercentX": 0,
      "positionPercentY": 0,
      "positionType": 0,
      "rotation": 0,
      "scaleX": 1,
      "scaleY": 1,
      "sizePercentX": 0.01,
      "sizePercentY": 0.01,
      "sizeType": 0,
      "tag": 397,
      "touchAble": false,
      "useMergedTexture": false,
      "visible": true,
      "width": 1024,
      "x": 0,
      "y": 0,
      "backGroundImage": null,
      "backGroundImageData": null,
      "backGroundScale9Enable": false,
      "bgColorB": 255,
      "bgColorG": 200,
      "bgColorOpacity": 0,
      "bgColorR": 150,
      "bgEndColorB": 255,
      "bgEndColorG": 0,
      "bgEndColorR": 0,
      "bgStartColorB": 255,
      "bgStartColorG": 255,
      "bgStartColorR": 255,
      "capInsetsHeight": 0,
      "capInsetsWidth": 0,
      "capInsetsX": 0,
      "capInsetsY": 0,
      "clipAble": false,
      "colorType": 1,
      "layoutType": 0,
      "vectorX": 0,
      "vectorY": -0.5
    }
  }
}